<?xml version="1.0" standalone="no"?>
<!DOCTYPE svg PUBLIC "-//W3C//DTD SVG 1.1//EN" "http://www.w3.org/Graphics/SVG/1.1/DTD/svg11.dtd" >
<svg xmlns="http://www.w3.org/2000/svg">
<metadata>Generated by IcoMoon</metadata>
<defs>
<font id="icomoon" horiz-adv-x="1024">
<font-face units-per-em="1024" ascent="960" descent="-64" />
<missing-glyph horiz-adv-x="1024" />
<glyph unicode="&#x20;" horiz-adv-x="512" d="" />
<glyph unicode="&#xe900;" glyph-name="pause" d="M352 960h-192c-17.696 0-32-14.336-32-32v-960c0-17.696 14.304-32 32-32h192c17.696 0 32 14.304 32 32v960c0 17.664-14.304 32-32 32zM864 960h-192c-17.696 0-32-14.336-32-32v-960c0-17.696 14.304-32 32-32h192c17.696 0 32 14.304 32 32v960c0 17.664-14.304 32-32 32z" />
<glyph unicode="&#xe901;" glyph-name="play" d="M192 960v-1024l640 511.264-640 512.736z" />
<glyph unicode="&#xe956;" glyph-name="display" d="M0 896v-640h1024v640h-1024zM960 320h-896v512h896v-512zM672 192h-320l-32-128-64-64h512l-64 64z" />
<glyph unicode="&#xe97b;" glyph-name="spinner2" d="M1024 448c-1.278 66.862-15.784 133.516-42.576 194.462-26.704 61-65.462 116.258-113.042 161.92-47.552 45.696-103.944 81.82-164.984 105.652-61.004 23.924-126.596 35.352-191.398 33.966-64.81-1.282-129.332-15.374-188.334-41.356-59.048-25.896-112.542-63.47-156.734-109.576-44.224-46.082-79.16-100.708-102.186-159.798-23.114-59.062-34.128-122.52-32.746-185.27 1.286-62.76 14.964-125.148 40.134-182.206 25.088-57.1 61.476-108.828 106.11-151.548 44.61-42.754 97.472-76.504 154.614-98.72 57.118-22.304 118.446-32.902 179.142-31.526 60.708 1.29 120.962 14.554 176.076 38.914 55.15 24.282 105.116 59.48 146.366 102.644 41.282 43.14 73.844 94.236 95.254 149.43 13.034 33.458 21.88 68.4 26.542 103.798 1.246-0.072 2.498-0.12 3.762-0.12 35.346 0 64 28.652 64 64 0 1.796-0.094 3.572-0.238 5.332h0.238zM922.306 278.052c-23.472-53.202-57.484-101.4-99.178-141.18-41.67-39.81-91-71.186-144.244-91.79-53.228-20.678-110.29-30.452-166.884-29.082-56.604 1.298-112.596 13.736-163.82 36.474-51.25 22.666-97.684 55.49-135.994 95.712-38.338 40.198-68.528 87.764-88.322 139.058-19.87 51.284-29.228 106.214-27.864 160.756 1.302 54.552 13.328 108.412 35.254 157.69 21.858 49.3 53.498 93.97 92.246 130.81 38.73 36.868 84.53 65.87 133.874 84.856 49.338 19.060 102.136 28.006 154.626 26.644 52.5-1.306 104.228-12.918 151.562-34.034 47.352-21.050 90.256-51.502 125.624-88.782 35.396-37.258 63.21-81.294 81.39-128.688 18.248-47.392 26.782-98.058 25.424-148.496h0.238c-0.144-1.76-0.238-3.536-0.238-5.332 0-33.012 24.992-60.174 57.086-63.624-6.224-34.822-16.53-68.818-30.78-100.992z" />
<glyph unicode="&#xe97d;" glyph-name="spinner4" d="M192 448c0 12.18 0.704 24.196 2.030 36.022l-184.98 60.104c-5.916-31.14-9.050-63.264-9.050-96.126 0-147.23 62.166-279.922 161.654-373.324l114.284 157.296c-52.124 56.926-83.938 132.758-83.938 216.028zM832 448c0-83.268-31.812-159.102-83.938-216.028l114.284-157.296c99.488 93.402 161.654 226.094 161.654 373.324 0 32.862-3.132 64.986-9.048 96.126l-184.98-60.104c1.324-11.828 2.028-23.842 2.028-36.022zM576 761.592c91.934-18.662 169.544-76.742 214.45-155.826l184.978 60.102c-73.196 155.42-222.24 268.060-399.428 290.156v-194.432zM233.55 605.768c44.906 79.084 122.516 137.164 214.45 155.826v194.43c-177.188-22.096-326.23-134.736-399.426-290.154l184.976-60.102zM644.556 156.672c-40.39-18.408-85.272-28.672-132.556-28.672s-92.166 10.264-132.554 28.67l-114.292-157.31c73.206-40.366 157.336-63.36 246.846-63.36s173.64 22.994 246.848 63.36l-114.292 157.312z" />
<glyph unicode="&#xe97e;" glyph-name="spinner5" d="M512 960c-282.77 0-512-229.23-512-512s229.23-512 512-512 512 229.23 512 512-229.23 512-512 512zM512 704c141.384 0 256-114.616 256-256s-114.616-256-256-256-256 114.616-256 256 114.616 256 256 256zM817.47 142.53c-81.594-81.594-190.080-126.53-305.47-126.53-115.392 0-223.876 44.936-305.47 126.53s-126.53 190.078-126.53 305.47c0 115.39 44.936 223.876 126.53 305.47l67.882-67.882c0 0 0 0 0 0-131.006-131.006-131.006-344.17 0-475.176 63.462-63.462 147.838-98.412 237.588-98.412 89.748 0 174.124 34.95 237.588 98.412 131.006 131.006 131.006 344.168 0 475.176l67.882 67.882c81.594-81.594 126.53-190.080 126.53-305.47 0-115.392-44.936-223.876-126.53-305.47z" />
<glyph unicode="&#xe981;" glyph-name="spinner8" d="M512-64c-136.76 0-265.334 53.258-362.040 149.96-96.702 96.706-149.96 225.28-149.96 362.040 0 96.838 27.182 191.134 78.606 272.692 50 79.296 120.664 143.372 204.356 185.3l43-85.832c-68.038-34.084-125.492-86.186-166.15-150.67-41.746-66.208-63.812-142.798-63.812-221.49 0-229.382 186.618-416 416-416s416 186.618 416 416c0 78.692-22.066 155.282-63.81 221.49-40.66 64.484-98.114 116.584-166.15 150.67l43 85.832c83.692-41.928 154.358-106.004 204.356-185.3 51.422-81.558 78.604-175.854 78.604-272.692 0-136.76-53.258-265.334-149.96-362.040-96.706-96.702-225.28-149.96-362.040-149.96z" />
<glyph unicode="&#xe982;" glyph-name="spinner9" d="M512 960c-278.748 0-505.458-222.762-511.848-499.974 5.92 241.864 189.832 435.974 415.848 435.974 229.75 0 416-200.576 416-448 0-53.020 42.98-96 96-96s96 42.98 96 96c0 282.77-229.23 512-512 512zM512-64c278.748 0 505.458 222.762 511.848 499.974-5.92-241.864-189.832-435.974-415.848-435.974-229.75 0-416 200.576-416 448 0 53.020-42.98 96-96 96s-96-42.98-96-96c0-282.77 229.23-512 512-512z" />
<glyph unicode="&#xe983;" glyph-name="spinner10" d="M0.042 446.382l-0.022-0.004c0 0 0.012-0.090 0.028-0.222 0.11-3.878 0.55-7.676 1.322-11.352 0.204-1.746 0.428-3.66 0.674-5.774 0.222-1.886 0.46-3.914 0.718-6.078 0.374-2.566 0.77-5.292 1.19-8.176 0.856-5.746 1.8-12.124 2.908-18.958 1.348-6.446 2.804-13.414 4.364-20.864 0.71-3.718 1.776-7.504 2.786-11.406 1.024-3.89 2.078-7.894 3.16-12.004 0.566-2.042 1.040-4.132 1.708-6.208 0.656-2.074 1.32-4.176 1.988-6.3 1.348-4.234 2.726-8.566 4.136-12.988 0.352-1.106 0.708-2.21 1.064-3.324 0.408-1.102 0.814-2.208 1.226-3.316 0.826-2.218 1.658-4.458 2.502-6.714 1.696-4.496 3.422-9.078 5.18-13.742 1.968-4.566 3.97-9.214 6.004-13.934 1.018-2.348 2.044-4.714 3.078-7.098 1.048-2.376 2.27-4.704 3.408-7.074 2.322-4.714 4.678-9.496 7.062-14.332 2.47-4.786 5.208-9.512 7.846-14.328 1.336-2.398 2.68-4.808 4.028-7.23 1.368-2.41 2.902-4.75 4.356-7.14 2.95-4.738 5.93-9.524 8.934-14.348 12.64-18.894 26.676-37.566 42.21-55.278 15.712-17.578 32.726-34.25 50.692-49.602 18.18-15.136 37.264-28.902 56.726-41.114 19.604-12.036 39.644-22.312 59.376-31.144 5.004-2.040 9.964-4.062 14.878-6.066 2.462-0.972 4.868-2.032 7.336-2.918 2.47-0.868 4.93-1.734 7.376-2.594 4.898-1.684 9.678-3.468 14.484-4.992 4.832-1.43 9.604-2.844 14.312-4.242 2.356-0.672 4.66-1.426 7.004-2.012 2.346-0.574 4.676-1.14 6.986-1.704 4.606-1.118 9.142-2.214 13.604-3.296 4.5-0.868 8.926-1.722 13.27-2.558 2.166-0.41 4.31-0.82 6.434-1.222 1.062-0.2 2.118-0.398 3.166-0.598 1.060-0.148 2.118-0.292 3.166-0.442 4.192-0.582 8.292-1.152 12.3-1.71 1.998-0.274 3.972-0.546 5.922-0.816 1.946-0.286 3.904-0.378 5.814-0.57 3.822-0.336 7.544-0.664 11.164-0.98 3.616-0.304 7.104-0.688 10.526-0.738 0.23-0.008 0.452-0.016 0.682-0.026 0.614-34.812 29.008-62.846 63.968-62.846 0.542 0 1.080 0.028 1.62 0.042v-0.022c0 0 0.090 0.012 0.224 0.028 3.878 0.11 7.674 0.55 11.35 1.322 1.748 0.204 3.662 0.426 5.776 0.672 1.884 0.222 3.912 0.462 6.076 0.718 2.566 0.376 5.292 0.772 8.176 1.192 5.746 0.856 12.124 1.8 18.958 2.908 6.446 1.348 13.414 2.804 20.864 4.362 3.718 0.712 7.504 1.778 11.406 2.786 3.892 1.026 7.894 2.080 12.004 3.162 2.044 0.566 4.132 1.040 6.208 1.708 2.074 0.656 4.174 1.318 6.3 1.988 4.232 1.348 8.564 2.726 12.988 4.134 1.104 0.354 2.21 0.708 3.324 1.066 1.1 0.406 2.206 0.814 3.316 1.226 2.216 0.824 4.456 1.658 6.714 2.5 4.496 1.698 9.078 3.424 13.74 5.182 4.568 1.968 9.216 3.97 13.936 6.004 2.348 1.018 4.714 2.044 7.098 3.078 2.376 1.048 4.702 2.27 7.074 3.408 4.714 2.322 9.494 4.678 14.33 7.062 4.786 2.47 9.512 5.208 14.328 7.846 2.398 1.336 4.808 2.678 7.23 4.028 2.41 1.366 4.75 2.9 7.14 4.354 4.738 2.952 9.524 5.93 14.35 8.936 18.89 12.64 37.564 26.674 55.278 42.21 17.574 15.712 34.248 32.726 49.602 50.69 15.136 18.182 28.902 37.264 41.112 56.728 12.036 19.602 22.314 39.644 31.142 59.376 2.042 5.002 4.062 9.964 6.068 14.878 0.974 2.462 2.032 4.868 2.918 7.334 0.87 2.472 1.732 4.932 2.592 7.376 1.686 4.898 3.468 9.678 4.994 14.484 1.432 4.832 2.846 9.604 4.24 14.31 0.674 2.358 1.43 4.66 2.016 7.004 0.57 2.348 1.138 4.676 1.702 6.988 1.118 4.606 2.216 9.14 3.296 13.602 0.868 4.502 1.72 8.928 2.558 13.272 0.41 2.164 0.818 4.308 1.222 6.434 0.2 1.060 0.398 2.116 0.596 3.164 0.148 1.062 0.296 2.118 0.444 3.168 0.582 4.19 1.152 8.292 1.708 12.3 0.278 1.996 0.55 3.97 0.82 5.922 0.284 1.946 0.376 3.902 0.568 5.812 0.336 3.822 0.664 7.546 0.98 11.164 0.304 3.616 0.686 7.106 0.738 10.528 0.020 0.534 0.040 1.044 0.058 1.574 35.224 0.146 63.732 28.738 63.732 63.992 0 0.542-0.028 1.080-0.042 1.62h0.022c0 0-0.012 0.090-0.028 0.224-0.11 3.878-0.55 7.674-1.322 11.35-0.204 1.748-0.428 3.662-0.674 5.776-0.222 1.886-0.46 3.914-0.718 6.076-0.374 2.566-0.77 5.294-1.19 8.176-0.856 5.746-1.8 12.124-2.908 18.958-1.348 6.444-2.804 13.414-4.364 20.862-0.71 3.72-1.776 7.506-2.786 11.408-1.024 3.892-2.078 7.894-3.16 12.002-0.566 2.044-1.040 4.134-1.708 6.208-0.656 2.076-1.32 4.174-1.988 6.3-1.348 4.234-2.726 8.566-4.136 12.99-0.352 1.102-0.708 2.21-1.064 3.324-0.408 1.1-0.814 2.206-1.226 3.316-0.826 2.216-1.658 4.454-2.502 6.714-1.696 4.498-3.422 9.080-5.18 13.74-1.968 4.57-3.97 9.216-6.004 13.936-1.020 2.348-2.044 4.714-3.078 7.098-1.048 2.376-2.27 4.702-3.408 7.076-2.322 4.714-4.678 9.494-7.062 14.33-2.47 4.786-5.208 9.512-7.846 14.328-1.336 2.398-2.68 4.808-4.028 7.23-1.368 2.41-2.902 4.75-4.356 7.14-2.95 4.74-5.93 9.524-8.934 14.35-12.64 18.892-26.676 37.564-42.21 55.278-15.712 17.576-32.726 34.25-50.692 49.602-18.18 15.136-37.264 28.902-56.726 41.112-19.604 12.036-39.644 22.314-59.376 31.142-5.004 2.040-9.964 4.062-14.878 6.068-2.462 0.974-4.868 2.032-7.336 2.918-2.47 0.87-4.93 1.734-7.376 2.592-4.898 1.684-9.678 3.468-14.484 4.994-4.832 1.432-9.604 2.846-14.312 4.242-2.356 0.672-4.66 1.428-7.004 2.014-2.346 0.572-4.676 1.138-6.986 1.702-4.606 1.118-9.142 2.216-13.604 3.298-4.5 0.868-8.926 1.72-13.27 2.558-2.166 0.412-4.31 0.82-6.434 1.222-1.062 0.2-2.118 0.398-3.166 0.596-1.060 0.148-2.118 0.296-3.166 0.442-4.192 0.584-8.292 1.154-12.3 1.71-1.998 0.276-3.972 0.55-5.922 0.82-1.946 0.284-3.904 0.376-5.814 0.57-3.822 0.336-7.544 0.664-11.164 0.98-3.616 0.304-7.104 0.686-10.526 0.738-0.852 0.032-1.674 0.062-2.512 0.092-0.65 34.78-29.028 62.778-63.966 62.778-0.542 0-1.080-0.028-1.62-0.042l-0.002 0.022c0 0-0.090-0.012-0.222-0.028-3.878-0.11-7.676-0.55-11.352-1.322-1.748-0.204-3.662-0.426-5.776-0.672-1.884-0.222-3.912-0.462-6.076-0.718-2.566-0.376-5.292-0.772-8.176-1.192-5.746-0.856-12.124-1.8-18.958-2.908-6.446-1.348-13.414-2.804-20.864-4.362-3.718-0.712-7.504-1.778-11.406-2.786-3.892-1.026-7.894-2.080-12.004-3.162-2.044-0.566-4.132-1.040-6.208-1.708-2.074-0.656-4.174-1.318-6.3-1.988-4.232-1.348-8.564-2.726-12.988-4.134-1.104-0.354-2.21-0.708-3.324-1.066-1.1-0.406-2.206-0.814-3.316-1.226-2.216-0.824-4.456-1.658-6.714-2.5-4.496-1.698-9.078-3.424-13.74-5.182-4.568-1.968-9.216-3.97-13.936-6.004-2.348-1.018-4.714-2.044-7.098-3.078-2.376-1.048-4.702-2.27-7.074-3.408-4.714-2.322-9.494-4.678-14.33-7.062-4.786-2.47-9.512-5.208-14.328-7.846-2.398-1.336-4.808-2.678-7.23-4.028-2.41-1.366-4.75-2.9-7.14-4.354-4.738-2.952-9.524-5.93-14.35-8.936-18.89-12.64-37.564-26.674-55.278-42.21-17.574-15.712-34.248-32.726-49.602-50.69-15.136-18.182-28.902-37.264-41.112-56.728-12.036-19.602-22.314-39.644-31.142-59.376-2.042-5.002-4.062-9.964-6.068-14.878-0.974-2.462-2.032-4.868-2.918-7.334-0.87-2.472-1.732-4.932-2.592-7.376-1.686-4.898-3.468-9.678-4.994-14.484-1.432-4.832-2.846-9.604-4.24-14.31-0.674-2.358-1.43-4.66-2.016-7.004-0.57-2.348-1.138-4.676-1.702-6.988-1.118-4.606-2.216-9.14-3.296-13.602-0.868-4.502-1.72-8.928-2.558-13.272-0.41-2.164-0.818-4.308-1.222-6.434-0.2-1.060-0.398-2.116-0.596-3.164-0.148-1.062-0.296-2.118-0.444-3.168-0.582-4.19-1.152-8.292-1.708-12.3-0.278-1.996-0.55-3.97-0.82-5.922-0.284-1.946-0.376-3.902-0.568-5.812-0.336-3.822-0.664-7.546-0.98-11.164-0.304-3.616-0.686-7.106-0.738-10.528-0.020-0.548-0.040-1.076-0.058-1.62-34.376-1.112-61.902-29.304-61.902-63.946 0-0.542 0.028-1.078 0.042-1.618zM73.518 511.294c0.042 0.196 0.086 0.384 0.128 0.58 0.644 3.248 1.632 6.542 2.556 9.942 0.934 3.388 1.894 6.876 2.88 10.454 0.516 1.78 0.934 3.602 1.546 5.406 0.596 1.802 1.202 3.628 1.81 5.476 1.218 3.682 2.464 7.45 3.736 11.294 0.316 0.958 0.634 1.924 0.956 2.892 0.37 0.954 0.74 1.914 1.114 2.876 0.746 1.924 1.5 3.868 2.26 5.83 1.52 3.904 3.070 7.882 4.646 11.93 1.768 3.96 3.566 7.99 5.392 12.080 0.908 2.038 1.824 4.090 2.746 6.156 0.932 2.060 2.036 4.072 3.052 6.126 2.070 4.084 4.17 8.222 6.294 12.412 2.202 4.142 4.654 8.224 6.998 12.392 1.184 2.074 2.374 4.16 3.57 6.256 1.21 2.086 2.586 4.102 3.876 6.166 2.616 4.098 5.256 8.232 7.918 12.402 11.234 16.298 23.632 32.398 37.33 47.638 13.874 15.104 28.842 29.404 44.598 42.548 15.974 12.928 32.686 24.65 49.676 35.022 17.13 10.194 34.6 18.838 51.734 26.258 4.35 1.7 8.662 3.382 12.934 5.050 2.136 0.812 4.216 1.71 6.36 2.444 2.146 0.714 4.28 1.428 6.404 2.136 4.25 1.386 8.382 2.888 12.548 4.142 4.184 1.174 8.314 2.332 12.392 3.474 2.038 0.55 4.026 1.19 6.054 1.662 2.030 0.458 4.044 0.914 6.044 1.368 3.978 0.91 7.896 1.806 11.748 2.688 3.888 0.686 7.71 1.36 11.462 2.022 1.868 0.33 3.716 0.658 5.546 0.98 0.914 0.162 1.824 0.324 2.728 0.484 0.916 0.112 1.828 0.222 2.734 0.332 3.612 0.448 7.148 0.882 10.604 1.31 1.72 0.216 3.422 0.432 5.102 0.644 1.674 0.226 3.364 0.266 5.010 0.408 3.292 0.238 6.498 0.472 9.616 0.7 3.11 0.218 6.11 0.524 9.058 0.508 5.848 0.132 11.32 0.256 16.38 0.372 4.664-0.168 8.948-0.324 12.818-0.462 1.914-0.054 3.726-0.108 5.432-0.156 2.122-0.134 4.108-0.26 5.958-0.378 2.13-0.138 4.060-0.266 5.82-0.38 3.256-0.51 6.592-0.782 9.99-0.782 0.466 0 0.93 0.026 1.396 0.036 0.132-0.008 0.224-0.014 0.224-0.014v0.020c31.14 0.778 56.75 23.784 61.556 53.754 0.542-0.12 1.064-0.236 1.612-0.356 3.246-0.644 6.542-1.632 9.942-2.556 3.386-0.934 6.876-1.894 10.454-2.88 1.778-0.516 3.602-0.934 5.404-1.546 1.802-0.596 3.63-1.202 5.478-1.812 3.68-1.218 7.448-2.464 11.292-3.736 0.96-0.316 1.924-0.634 2.892-0.956 0.956-0.37 1.914-0.74 2.876-1.112 1.926-0.746 3.868-1.5 5.83-2.26 3.904-1.52 7.884-3.070 11.932-4.646 3.96-1.768 7.988-3.566 12.080-5.392 2.038-0.908 4.088-1.824 6.156-2.746 2.060-0.932 4.072-2.036 6.126-3.054 4.082-2.070 8.222-4.17 12.41-6.294 4.144-2.202 8.226-4.654 12.394-6.998 2.074-1.184 4.16-2.374 6.256-3.572 2.086-1.21 4.102-2.586 6.166-3.876 4.098-2.616 8.23-5.256 12.402-7.918 16.296-11.234 32.398-23.632 47.636-37.33 15.104-13.874 29.406-28.842 42.55-44.598 12.928-15.974 24.648-32.686 35.020-49.676 10.196-17.13 18.84-34.6 26.26-51.736 1.698-4.348 3.382-8.662 5.050-12.932 0.812-2.136 1.71-4.216 2.444-6.36 0.714-2.146 1.428-4.28 2.136-6.404 1.386-4.25 2.888-8.384 4.142-12.548 1.174-4.184 2.33-8.316 3.474-12.392 0.55-2.038 1.19-4.026 1.66-6.054 0.46-2.030 0.916-4.046 1.368-6.046 0.91-3.978 1.808-7.896 2.688-11.748 0.688-3.888 1.362-7.71 2.024-11.462 0.33-1.868 0.656-3.716 0.98-5.548 0.162-0.914 0.324-1.824 0.484-2.728 0.11-0.916 0.222-1.828 0.332-2.734 0.446-3.612 0.882-7.148 1.31-10.604 0.216-1.72 0.432-3.42 0.642-5.1 0.226-1.674 0.268-3.364 0.41-5.010 0.238-3.292 0.472-6.498 0.7-9.616 0.218-3.11 0.524-6.11 0.508-9.058 0.132-5.848 0.256-11.32 0.372-16.38-0.168-4.664-0.324-8.948-0.462-12.818-0.054-1.914-0.108-3.726-0.156-5.432-0.134-2.122-0.26-4.108-0.378-5.958-0.138-2.13-0.266-4.060-0.38-5.82-0.498-3.256-0.768-6.592-0.768-9.99 0-0.468 0.026-0.93 0.036-1.396-0.008-0.132-0.016-0.224-0.016-0.224h0.022c0.768-30.766 23.236-56.128 52.682-61.37-0.066-0.296-0.13-0.584-0.198-0.884-0.644-3.248-1.632-6.542-2.556-9.942-0.934-3.388-1.894-6.876-2.88-10.454-0.516-1.78-0.934-3.602-1.546-5.406-0.596-1.802-1.202-3.628-1.81-5.476-1.218-3.682-2.464-7.45-3.736-11.294-0.316-0.958-0.634-1.924-0.956-2.892-0.37-0.954-0.74-1.914-1.114-2.876-0.746-1.924-1.5-3.868-2.26-5.83-1.52-3.904-3.070-7.882-4.646-11.93-1.768-3.96-3.566-7.99-5.392-12.080-0.908-2.038-1.824-4.090-2.746-6.156-0.932-2.060-2.036-4.072-3.052-6.126-2.070-4.084-4.17-8.222-6.294-12.412-2.202-4.142-4.654-8.224-6.998-12.392-1.184-2.074-2.374-4.16-3.57-6.256-1.21-2.086-2.586-4.102-3.876-6.166-2.616-4.098-5.256-8.232-7.918-12.402-11.234-16.298-23.632-32.398-37.33-47.638-13.874-15.104-28.842-29.404-44.598-42.548-15.974-12.928-32.686-24.65-49.676-35.022-17.13-10.194-34.6-18.838-51.734-26.258-4.35-1.7-8.662-3.382-12.934-5.050-2.136-0.812-4.216-1.71-6.36-2.444-2.146-0.714-4.28-1.428-6.404-2.136-4.25-1.386-8.382-2.888-12.548-4.142-4.184-1.174-8.314-2.332-12.392-3.474-2.038-0.55-4.026-1.19-6.054-1.662-2.030-0.458-4.044-0.914-6.044-1.368-3.978-0.91-7.896-1.806-11.748-2.688-3.888-0.686-7.71-1.36-11.462-2.022-1.868-0.33-3.716-0.658-5.546-0.98-0.914-0.162-1.824-0.324-2.728-0.484-0.916-0.112-1.828-0.222-2.734-0.332-3.612-0.448-7.148-0.882-10.604-1.31-1.72-0.216-3.422-0.432-5.102-0.644-1.674-0.226-3.364-0.266-5.010-0.408-3.292-0.238-6.498-0.472-9.616-0.7-3.11-0.218-6.11-0.524-9.058-0.508-5.848-0.132-11.32-0.256-16.38-0.372-4.664 0.168-8.948 0.324-12.818 0.462-1.914 0.054-3.726 0.108-5.432 0.156-2.122 0.134-4.108 0.26-5.958 0.378-2.13 0.138-4.060 0.266-5.82 0.38-3.256 0.51-6.592 0.782-9.99 0.782-0.466 0-0.93-0.026-1.396-0.036-0.132 0.008-0.224 0.014-0.224 0.014v-0.020c-31.004-0.774-56.524-23.586-61.488-53.364-3.2 0.64-6.446 1.61-9.792 2.522-3.386 0.934-6.876 1.894-10.454 2.878-1.778 0.516-3.602 0.938-5.404 1.546-1.802 0.598-3.63 1.204-5.478 1.812-3.68 1.218-7.448 2.464-11.292 3.738-0.96 0.316-1.924 0.632-2.892 0.954-0.956 0.372-1.914 0.742-2.876 1.114-1.926 0.746-3.868 1.5-5.83 2.258-3.904 1.524-7.884 3.070-11.932 4.648-3.96 1.77-7.988 3.566-12.080 5.39-2.038 0.91-4.088 1.824-6.156 2.746-2.060 0.934-4.072 2.036-6.126 3.054-4.082 2.070-8.222 4.172-12.41 6.296-4.144 2.2-8.226 4.652-12.394 6.996-2.074 1.184-4.16 2.376-6.256 3.57-2.086 1.21-4.102 2.586-6.166 3.878-4.098 2.614-8.23 5.254-12.402 7.918-16.296 11.23-32.398 23.632-47.636 37.328-15.104 13.876-29.406 28.84-42.55 44.598-12.928 15.972-24.648 32.684-35.020 49.676-10.196 17.128-18.84 34.602-26.26 51.734-1.698 4.352-3.382 8.664-5.050 12.934-0.812 2.136-1.71 4.218-2.444 6.36-0.714 2.148-1.428 4.282-2.136 6.406-1.386 4.25-2.888 8.382-4.142 12.546-1.174 4.184-2.33 8.316-3.474 12.394-0.55 2.036-1.19 4.024-1.66 6.054-0.46 2.028-0.916 4.042-1.368 6.042-0.91 3.98-1.808 7.898-2.688 11.75-0.688 3.886-1.362 7.71-2.024 11.46-0.33 1.868-0.656 3.718-0.98 5.546-0.162 0.914-0.324 1.824-0.484 2.73-0.11 0.914-0.222 1.828-0.332 2.734-0.446 3.61-0.882 7.148-1.31 10.602-0.216 1.722-0.432 3.422-0.642 5.102-0.226 1.676-0.268 3.364-0.41 5.012-0.238 3.29-0.472 6.496-0.7 9.614-0.218 3.11-0.524 6.11-0.508 9.058-0.132 5.848-0.256 11.32-0.372 16.382 0.168 4.664 0.324 8.946 0.462 12.816 0.054 1.914 0.108 3.726 0.156 5.434 0.134 2.122 0.26 4.106 0.378 5.958 0.138 2.128 0.266 4.058 0.38 5.82 0.496 3.26 0.766 6.596 0.766 9.994 0 0.466-0.026 0.93-0.036 1.396 0.008 0.132 0.016 0.224 0.016 0.224h-0.022c-0.78 31.38-24.134 57.154-54.44 61.674z" />
<glyph unicode="&#xe984;" glyph-name="spinner11" d="M1024 576h-384l143.53 143.53c-72.53 72.526-168.96 112.47-271.53 112.47s-199-39.944-271.53-112.47c-72.526-72.53-112.47-168.96-112.47-271.53s39.944-199 112.47-271.53c72.53-72.526 168.96-112.47 271.53-112.47s199 39.944 271.528 112.472c6.056 6.054 11.86 12.292 17.456 18.668l96.32-84.282c-93.846-107.166-231.664-174.858-385.304-174.858-282.77 0-512 229.23-512 512s229.23 512 512 512c141.386 0 269.368-57.326 362.016-149.984l149.984 149.984v-384z" />
<glyph unicode="&#xe989;" glyph-name="enlarge" d="M1024 960h-416l160-160-192-192 96-96 192 192 160-160zM1024-64v416l-160-160-192 192-96-96 192-192-160-160zM0-64h416l-160 160 192 192-96 96-192-192-160 160zM0 960v-416l160 160 192-192 96 96-192 192 160 160z" />
<glyph unicode="&#xe98a;" glyph-name="shrink" d="M576 512h416l-160 160 192 192-96 96-192-192-160 160zM576 384v-416l160 160 192-192 96 96-192 192 160 160zM448 384.004h-416l160-160-192-192 96-96 192 192 160-160zM448 512v416l-160-160-192 192-96-96 192-192-160-160z" />
<glyph unicode="&#xea1c;" glyph-name="play3" d="M192 832l640-384-640-384z" />
<glyph unicode="&#xea1d;" glyph-name="pause2" d="M128 832h320v-768h-320zM576 832h320v-768h-320z" />
<glyph unicode="&#xea1e;" glyph-name="stop2" d="M128 832h768v-768h-768z" />
<glyph unicode="&#xea1f;" glyph-name="backward2" d="M576 800v-320l320 320v-704l-320 320v-320l-352 352z" />
<glyph unicode="&#xea20;" glyph-name="forward3" d="M512 96v320l-320-320v704l320-320v320l352-352z" />
<glyph unicode="&#xea21;" glyph-name="first" d="M128 64v768h128v-352l320 320v-320l320 320v-704l-320 320v-320l-320 320v-352z" />
<glyph unicode="&#xea22;" glyph-name="last" d="M896 832v-768h-128v352l-320-320v320l-320-320v704l320-320v320l320-320v352z" />
<glyph unicode="&#xea23;" glyph-name="previous2" d="M256 64v768h128v-352l320 320v-704l-320 320v-352z" />
<glyph unicode="&#xea24;" glyph-name="next2" d="M768 832v-768h-128v352l-320-320v704l320-320v352z" />
<glyph unicode="&#xea26;" glyph-name="volume-high" horiz-adv-x="1088" d="M890.040 37.96c-12.286 0-24.566 4.686-33.942 14.056-18.744 18.746-18.744 49.136 0 67.882 87.638 87.642 135.904 204.16 135.904 328.1 0 123.938-48.266 240.458-135.904 328.098-18.744 18.746-18.744 49.138 0 67.882s49.138 18.744 67.882 0c105.77-105.772 164.022-246.4 164.022-395.98s-58.252-290.208-164.022-395.98c-9.372-9.372-21.656-14.058-33.94-14.058zM719.53 128.47c-12.286 0-24.566 4.686-33.942 14.056-18.744 18.744-18.744 49.136 0 67.882 131.006 131.006 131.006 344.17 0 475.176-18.744 18.746-18.744 49.138 0 67.882 18.744 18.742 49.138 18.744 67.882 0 81.594-81.59 126.53-190.074 126.53-305.466 0-115.39-44.936-223.876-126.53-305.47-9.372-9.374-21.656-14.060-33.94-14.060v0zM549.020 218.98c-12.286 0-24.568 4.686-33.942 14.058-18.746 18.746-18.746 49.134 0 67.88 81.1 81.1 81.1 213.058 0 294.156-18.746 18.746-18.746 49.138 0 67.882s49.136 18.744 67.882 0c118.53-118.53 118.53-311.392 0-429.922-9.372-9.368-21.656-14.054-33.94-14.054zM416.006 0c-8.328 0-16.512 3.25-22.634 9.374l-246.626 246.626h-114.746c-17.672 0-32 14.326-32 32v320c0 17.672 14.328 32 32 32h114.746l246.626 246.628c9.154 9.154 22.916 11.89 34.874 6.936 11.958-4.952 19.754-16.622 19.754-29.564v-832c0-12.944-7.796-24.612-19.754-29.564-3.958-1.64-8.118-2.436-12.24-2.436z" />
<glyph unicode="&#xea27;" glyph-name="volume-medium" d="M719.53 128.47c-12.286 0-24.566 4.686-33.942 14.056-18.744 18.744-18.744 49.136 0 67.882 131.006 131.006 131.006 344.17 0 475.176-18.744 18.746-18.744 49.138 0 67.882 18.744 18.742 49.138 18.744 67.882 0 81.594-81.59 126.53-190.074 126.53-305.466 0-115.39-44.936-223.876-126.53-305.47-9.372-9.374-21.656-14.060-33.94-14.060v0zM549.020 218.98c-12.286 0-24.566 4.686-33.942 14.058-18.746 18.746-18.746 49.134 0 67.88 81.1 81.1 81.1 213.058 0 294.156-18.746 18.746-18.746 49.138 0 67.882s49.136 18.744 67.882 0c118.53-118.53 118.53-311.392 0-429.922-9.372-9.368-21.656-14.054-33.94-14.054zM416.006 0c-8.328 0-16.512 3.25-22.634 9.374l-246.626 246.626h-114.746c-17.672 0-32 14.326-32 32v320c0 17.672 14.328 32 32 32h114.746l246.626 246.628c9.154 9.154 22.916 11.89 34.874 6.936 11.958-4.952 19.754-16.622 19.754-29.564v-832c0-12.944-7.796-24.612-19.754-29.564-3.958-1.64-8.118-2.436-12.24-2.436z" />
<glyph unicode="&#xea28;" glyph-name="volume-low" d="M549.020 218.98c-12.286 0-24.566 4.686-33.942 14.058-18.746 18.746-18.746 49.134 0 67.88 81.1 81.1 81.1 213.058 0 294.156-18.746 18.746-18.746 49.138 0 67.882s49.136 18.744 67.882 0c118.53-118.53 118.53-311.392 0-429.922-9.372-9.368-21.656-14.054-33.94-14.054zM416.006 0c-8.328 0-16.512 3.25-22.634 9.374l-246.626 246.626h-114.746c-17.672 0-32 14.326-32 32v320c0 17.672 14.328 32 32 32h114.746l246.626 246.628c9.154 9.154 22.916 11.89 34.874 6.936 11.958-4.952 19.754-16.622 19.754-29.564v-832c0-12.944-7.796-24.612-19.754-29.564-3.958-1.64-8.118-2.436-12.24-2.436z" />
<glyph unicode="&#xea29;" glyph-name="volume-mute" d="M416.006 0c-8.328 0-16.512 3.25-22.634 9.374l-246.626 246.626h-114.746c-17.672 0-32 14.326-32 32v320c0 17.672 14.328 32 32 32h114.746l246.626 246.628c9.154 9.154 22.916 11.89 34.874 6.936 11.958-4.952 19.754-16.622 19.754-29.564v-832c0-12.944-7.796-24.612-19.754-29.564-3.958-1.64-8.118-2.436-12.24-2.436z" />
<glyph unicode="&#xea2a;" glyph-name="volume-mute2" d="M960 340.852v-84.852h-84.852l-107.148 107.148-107.148-107.148h-84.852v84.852l107.148 107.148-107.148 107.148v84.852h84.852l107.148-107.148 107.148 107.148h84.852v-84.852l-107.148-107.148 107.148-107.148zM416.006 0c-8.328 0-16.512 3.25-22.634 9.374l-246.626 246.626h-114.746c-17.672 0-32 14.326-32 32v320c0 17.672 14.328 32 32 32h114.746l246.626 246.628c9.154 9.154 22.916 11.89 34.874 6.936 11.958-4.952 19.754-16.622 19.754-29.564v-832c0-12.944-7.796-24.612-19.754-29.564-3.958-1.64-8.118-2.436-12.24-2.436z" />
<glyph unicode="&#xea2b;" glyph-name="volume-increase" d="M1024 384h-192v-192h-128v192h-192v128h192v192h128v-192h192v-128zM416.006 0c-8.328 0-16.512 3.25-22.634 9.374l-246.626 246.626h-114.746c-17.672 0-32 14.326-32 32v320c0 17.672 14.328 32 32 32h114.746l246.626 246.628c9.154 9.154 22.916 11.89 34.874 6.936 11.958-4.952 19.754-16.622 19.754-29.564v-832c0-12.944-7.796-24.612-19.754-29.564-3.958-1.64-8.118-2.436-12.24-2.436z" />
<glyph unicode="&#xea2c;" glyph-name="volume-decrease" d="M512 512h512v-128h-512v128zM416.006 0c-8.328 0-16.512 3.25-22.634 9.374l-246.626 246.626h-114.746c-17.672 0-32 14.326-32 32v320c0 17.672 14.328 32 32 32h114.746l246.626 246.628c9.154 9.154 22.916 11.89 34.874 6.936 11.958-4.952 19.754-16.622 19.754-29.564v-832c0-12.944-7.796-24.612-19.754-29.564-3.958-1.64-8.118-2.436-12.24-2.436z" />
<glyph unicode="&#xea2d;" glyph-name="loop" d="M128 640h640v-192l256 256-256 256v-192h-768v-384h128zM896 256h-640v192l-256-256 256-256v192h768v384h-128z" />
<glyph unicode="&#xea2e;" glyph-name="loop2" d="M889.68 793.68c-93.608 102.216-228.154 166.32-377.68 166.32-282.77 0-512-229.23-512-512h96c0 229.75 186.25 416 416 416 123.020 0 233.542-53.418 309.696-138.306l-149.696-149.694h352v352l-134.32-134.32zM928 448c0-229.75-186.25-416-416-416-123.020 0-233.542 53.418-309.694 138.306l149.694 149.694h-352v-352l134.32 134.32c93.608-102.216 228.154-166.32 377.68-166.32 282.77 0 512 229.23 512 512h-96z" />
<glyph unicode="&#xea2f;" glyph-name="infinite" d="M783.988 207.988c-64.104 0-124.372 24.96-169.7 70.288l-102.288 102.282-102.276-102.27c-45.332-45.336-105.6-70.3-169.706-70.3-64.118 0-124.39 24.964-169.722 70.3-45.332 45.334-70.296 105.604-70.296 169.712s24.964 124.38 70.296 169.714c45.334 45.332 105.608 70.296 169.714 70.296 64.108 0 124.38-24.964 169.712-70.296l102.278-102.276 102.276 102.276c45.332 45.332 105.604 70.298 169.712 70.298 64.112 0 124.384-24.966 169.71-70.298 45.338-45.334 70.302-105.606 70.302-169.714 0-64.112-24.964-124.382-70.3-169.71-45.326-45.336-105.598-70.302-169.712-70.302zM681.72 345.712c27.322-27.31 63.64-42.354 102.268-42.352 38.634 0 74.958 15.044 102.276 42.362 27.316 27.322 42.364 63.644 42.364 102.278s-15.046 74.956-42.364 102.274c-27.32 27.318-63.64 42.364-102.276 42.364-38.632 0-74.956-15.044-102.278-42.364l-102.268-102.274 102.278-102.288zM240.012 592.638c-38.634 0-74.956-15.044-102.274-42.364-27.32-27.318-42.364-63.64-42.364-102.274 0-38.632 15.044-74.954 42.364-102.276 27.32-27.316 63.642-42.364 102.274-42.364 38.634 0 74.956 15.044 102.272 42.362l102.276 102.278-102.276 102.274c-27.318 27.32-63.64 42.366-102.272 42.364v0z" />
<glyph unicode="&#xea30;" glyph-name="shuffle" d="M768 256h-101.49l-160 160 160 160h101.49v-160l224 224-224 224v-160h-128c-16.974 0-33.252-6.744-45.254-18.746l-178.746-178.744-178.746 178.746c-12 12-28.28 18.744-45.254 18.744h-192v-128h165.49l160-160-160-160h-165.49v-128h192c16.974 0 33.252 6.742 45.254 18.746l178.746 178.744 178.746-178.744c12.002-12.004 28.28-18.746 45.254-18.746h128v-160l224 224-224 224v-160z" />
</font></defs></svg>